<?xml version="1.0" encoding="UTF-8"?>
<svg width="64px" height="64px" viewBox="0 0 64 64" version="1.1" xmlns="http://www.w3.org/2000/svg" xmlns:xlink="http://www.w3.org/1999/xlink">
    <!-- Generator: Sketch 55.1 (78136) - https://sketchapp.com -->
    <title>Instagram</title>
    <desc>Created with Sketch.</desc>
    <g id="src/assets-Instagram-logo-Desktop" stroke="none" stroke-width="1" fill="none" fill-rule="evenodd">
        <g id="src/assets-Instagram-logo-UDS-news-v3-1" transform="translate(-576.000000, -3234.000000)" fill-rule="nonzero">
            <g id="src/assets-Instagram-logo-Group-9" transform="translate(464.000000, 3164.000000)">
                <g id="src/assets-Instagram-logo-Instagram" transform="translate(112.000000, 70.000000)">
                    <path d="M32,0.178983051 C23.36,0.178983051 22.2752542,0.216949153 18.88,0.374237288 C16.2405968,0.42532665 13.6290245,0.924166319 11.1566102,1.84949153 C9.03352441,2.64908757 7.11040584,3.90216868 5.52135593,5.52135593 C3.90216868,7.11040584 2.64908757,9.03352441 1.84949153,11.1566102 C0.924166319,13.6290245 0.42532665,16.2405968 0.374237288,18.88 C0.216949153,22.2752542 0.178983051,23.36 0.178983051,32 C0.178983051,40.64 0.216949153,41.7247458 0.374237288,45.12 C0.42532665,47.7594032 0.924166319,50.3709755 1.84949153,52.8433898 C2.64908757,54.9664756 3.90216868,56.8895942 5.52135593,58.4786441 C7.11040584,60.0978313 9.03352441,61.3509124 11.1566102,62.1505085 C13.6290245,63.0758337 16.2405968,63.5746734 18.88,63.6257627 C22.2752542,63.7830508 23.36,63.8210169 32,63.8210169 C40.64,63.8210169 41.7247458,63.7830508 45.12,63.6257627 C47.7594032,63.5746734 50.3709755,63.0758337 52.8433898,62.1505085 C57.1181071,60.4973979 60.4973979,57.1181071 62.1505085,52.8433898 C63.0758337,50.3709755 63.5746734,47.7594032 63.6257627,45.12 C63.7830508,41.7247458 63.8210169,40.64 63.8210169,32 C63.8210169,23.36 63.7830508,22.2752542 63.6257627,18.88 C63.5746734,16.2405968 63.0758337,13.6290245 62.1505085,11.1566102 C61.3509124,9.03352441 60.0978313,7.11040584 58.4786441,5.52135593 C56.8895942,3.90216868 54.9664756,2.64908757 52.8433898,1.84949153 C50.3709755,0.924166319 47.7594032,0.42532665 45.12,0.374237288 C41.7247458,0.216949153 40.64,0.178983051 32,0.178983051 Z" id="src/assets-Instagram-logo-Path" fill="#EF1A8C"></path>
                    <path d="M32,13.8901695 C37.8955932,13.8901695 38.5952542,13.8901695 40.9274576,14.020339 C42.3241143,14.0366992 43.7075117,14.2935634 45.0169492,14.779661 C46.9478845,15.5257398 48.4742602,17.0521155 49.220339,18.9830508 C49.7076627,20.2959109 49.9645465,21.6830836 49.979661,23.0833898 C50.0881356,25.4155932 50.1098305,26.1152542 50.1098305,32.0108475 C50.1098305,37.9064407 50.1098305,38.6061017 49.979661,40.9383051 C49.9620585,42.3313117 49.7052138,43.7109347 49.220339,45.0169492 C48.4742602,46.9478845 46.9478845,48.4742602 45.0169492,49.220339 C43.7040891,49.7076627 42.3169164,49.9645465 40.9166102,49.979661 C38.5844068,50.0881356 37.8901695,50.1098305 31.9891525,50.1098305 C26.0881356,50.1098305 25.3938983,50.1098305 23.0616949,49.979661 C21.6686883,49.9620585 20.2890653,49.7052138 18.9830508,49.220339 C17.0521155,48.4742602 15.5257398,46.9478845 14.779661,45.0169492 C14.2923373,43.7040891 14.0354535,42.3169164 14.020339,40.9166102 C13.9118644,38.5844068 13.8901695,37.8847458 13.8901695,31.9891525 C13.8901695,26.0935593 13.8901695,25.3938983 14.020339,23.0616949 C14.0379415,21.6686883 14.2947862,20.2890653 14.779661,18.9830508 C15.5257398,17.0521155 17.0521155,15.5257398 18.9830508,14.779661 C20.2959109,14.2923373 21.6830836,14.0354535 23.0833898,14.020339 C25.4155932,13.9118644 26.1152542,13.8901695 32.0108475,13.8901695 L32,13.8901695 Z M32.0108475,9.94169492 C26.0447458,9.94169492 25.2691525,9.96881356 22.9152542,10.0772881 C21.0856732,10.113371 19.2755162,10.4599968 17.5620339,11.1023729 C14.5965105,12.2460263 12.2510087,14.5875894 11.1023729,17.5511864 C10.4599968,19.2646687 10.113371,21.0748258 10.0772881,22.9044068 C9.96881356,25.2583051 9.94169492,26.0122034 9.94169492,32 C9.94169492,37.9877966 9.96881356,38.7416949 10.0772881,41.0955932 C10.113371,42.9251742 10.4599968,44.7353313 11.1023729,46.4488136 C12.2485657,49.4102239 14.5897761,51.7514343 17.5511864,52.8976271 C19.2646687,53.5400032 21.0748258,53.886629 22.9044068,53.9227119 C25.2583051,54.0311864 26.0122034,54.0583051 32,54.0583051 C37.9877966,54.0583051 38.7416949,54.0583051 41.0955932,53.9227119 C42.9251742,53.886629 44.7353313,53.5400032 46.4488136,52.8976271 C49.4102239,51.7514343 51.7514343,49.4102239 52.8976271,46.4488136 C53.5400032,44.7353313 53.886629,42.9251742 53.9227119,41.0955932 C54.0311864,38.7416949 54.0583051,37.9877966 54.0583051,32 C54.0583051,26.0122034 54.0583051,25.2583051 53.9227119,22.9044068 C53.886629,21.0748258 53.5400032,19.2646687 52.8976271,17.5511864 C51.7514343,14.5897761 49.4102239,12.2485657 46.4488136,11.1023729 C44.7353313,10.4599968 42.9251742,10.113371 41.0955932,10.0772881 C38.7416949,9.96881356 37.9877966,9.94169492 32,9.94169492 L32.0108475,9.94169492 Z" id="src/assets-Instagram-logo-Shape" fill="#FFFFFF"></path>
                    <path d="M32,20.680678 C25.7485111,20.680678 20.680678,25.7485111 20.680678,32 C20.680678,38.2514889 25.7485111,43.319322 32,43.319322 C38.2514889,43.319322 43.319322,38.2514889 43.319322,32 C43.319322,25.7485111 38.2514889,20.680678 32,20.680678 L32,20.680678 Z M32,39.3708495 C27.9291934,39.3708495 24.6291525,36.0708066 24.6291525,32 C24.6291525,27.9291934 27.9291934,24.6291525 32,24.6291525 C36.0708066,24.6291525 39.3708495,27.9291934 39.3708495,32 C39.3722878,33.9553115 38.5961812,35.8309524 37.2135668,37.2135668 C35.8309524,38.5961812 33.9553115,39.3722878 32,39.3708495 L32,39.3708495 Z" id="src/assets-Instagram-logo-Shape" fill="#FFFFFF"></path>
                    <path d="M46.3945763,20.2467797 C46.3945763,21.3151084 45.7510306,22.2782426 44.7640235,22.6870743 C43.7770164,23.0959061 42.6409222,22.8699229 41.8854996,22.1145004 C41.1300771,21.3590778 40.9040939,20.2229836 41.3129257,19.2359765 C41.7217574,18.2489694 42.6848916,17.6054237 43.7532203,17.6054237 C45.2120009,17.6054237 46.3945763,18.7879991 46.3945763,20.2467797 L46.3945763,20.2467797 Z" id="src/assets-Instagram-logo-Path" fill="#FFFFFF"></path>
                </g>
            </g>
        </g>
    </g>
</svg>