<svg width="16" height="16" viewBox="0 0 16 16" fill="none" xmlns="http://www.w3.org/2000/svg">
<path id="src/assets-menu-closed-ico-close" d="M2.70344 0.47823L7.9986 5.794L13.3144 0.47823C14.7772 -0.984637 16.9818 1.24057 15.519 2.70344L10.2238 7.9986L15.519 13.3144C16.9818 14.7772 14.7772 16.9818 13.3144 15.519L7.9986 10.2238L2.70344 15.519C1.24057 16.9818 -0.984637 14.7772 0.47823 13.3144L5.794 7.9986L0.47823 2.70344C-0.984637 1.24057 1.24057 -0.984637 2.70344 0.47823Z" fill="#003EFF"/>
</svg>
