<?xml version="1.0" encoding="UTF-8"?>
<svg width="64px" height="64px" viewBox="0 0 64 64" version="1.1" xmlns="http://www.w3.org/2000/svg" xmlns:xlink="http://www.w3.org/1999/xlink">
    <!-- Generator: Sketch 55.1 (78136) - https://sketchapp.com -->
    <title>Odnoklassniki</title>
    <desc>Created with Sketch.</desc>
    <g id="src/assets-Odnoklassniki-logo-Desktop" stroke="none" stroke-width="1" fill="none" fill-rule="evenodd">
        <g id="src/assets-Odnoklassniki-logo-UDS-news-v3-1" transform="translate(-688.000000, -3234.000000)" fill-rule="nonzero">
            <g id="src/assets-Odnoklassniki-logo-Group-9" transform="translate(464.000000, 3164.000000)">
                <g id="src/assets-Odnoklassniki-logo-Odnoklassniki" transform="translate(224.000000, 70.000000)">
                    <path d="M63.9021949,54.5524124 C63.9021949,59.7172784 59.7367795,63.9038351 54.5987282,63.9038351 L9.30346667,63.9038351 C4.16525128,63.9038351 0,59.7172784 0,54.5524124 L0,9.35142268 C0,4.18672165 4.16525128,0 9.30346667,0 L54.5987282,0 C59.7369436,0 63.9021949,4.18672165 63.9021949,9.35142268 L63.9021949,54.5524124 Z" id="src/assets-Odnoklassniki-logo-Path" fill="#FAAB62"></path>
                    <path d="M63.5739897,54.3203299 C63.5739897,59.4319175 59.4514051,63.5755876 54.3660308,63.5755876 L9.536,63.5755876 C4.45062564,63.5755876 0.328205128,59.4319175 0.328205128,54.3203299 L0.328205128,9.58350515 C0.328205128,4.47191753 4.45078974,0.328247423 9.536,0.328247423 L54.3660308,0.328247423 C59.4514051,0.328247423 63.5739897,4.47208247 63.5739897,9.58350515 L63.5739897,54.3203299 Z" id="src/assets-Odnoklassniki-logo-Path" fill="#F7931E"></path>
                    <path d="M31.9154872,9.55068041 C25.5822769,9.55068041 20.4483282,14.7112577 20.4483282,21.0769485 C20.4483282,27.4428041 25.5822769,32.6037113 31.9154872,32.6037113 C38.2486974,32.6037113 43.3826462,27.4428041 43.3826462,21.0769485 C43.3826462,14.7112577 38.2486974,9.55068041 31.9154872,9.55068041 Z M31.9154872,25.8419794 C29.297559,25.8419794 27.1752205,23.7085361 27.1752205,21.0771134 C27.1752205,18.4456907 29.297559,16.3124124 31.9154872,16.3124124 C34.5334154,16.3124124 36.6557538,18.4456907 36.6557538,21.0771134 C36.6557538,23.7085361 34.5334154,25.8419794 31.9154872,25.8419794 Z" id="src/assets-Odnoklassniki-logo-Shape" fill="#FFFFFF"></path>
                    <g id="src/assets-Odnoklassniki-logo-Group" transform="translate(18.707692, 32.824742)" fill="#FFFFFF">
                        <path d="M17.2562051,8.95043299 C21.8469744,8.01039175 24.5979897,5.82515464 24.7435487,5.70787629 C26.0868923,4.62498969 26.3026872,2.65253608 25.2253538,1.30210309 C24.1481846,-0.0481649485 22.1860103,-0.265072165 20.8423385,0.817649485 C20.8139487,0.840742268 17.8797949,3.10317526 13.0520615,3.10647423 C8.22449231,3.10317526 5.22830769,0.840742268 5.19991795,0.817649485 C3.85624615,-0.265072165 1.89407179,-0.0481649485 0.816902564,1.30210309 C-0.260430769,2.65253608 -0.0446358974,4.62498969 1.29870769,5.70787629 C1.4462359,5.82680412 4.31081026,8.06894845 9.0302359,8.9868866 L2.45284103,15.8962474 C1.25751795,17.142268 1.29345641,19.126268 2.53308718,20.3277526 C3.13813333,20.9141443 3.91794872,21.2056082 4.69710769,21.2056082 C5.51401026,21.2056082 6.33009231,20.8847835 6.94186667,20.2469278 L13.0522256,13.7042474 L19.7797744,20.2893196 C20.9987282,21.5125773 22.9725538,21.5105979 24.1892103,20.2858557 C25.4058667,19.0609485 25.4043897,17.0766186 24.1857641,15.8536907 L17.2562051,8.95043299 Z" id="src/assets-Odnoklassniki-logo-Path"></path>
                        <path d="M13.0520615,3.10630928 C13.0443487,3.10630928 13.0596103,3.10647423 13.0520615,3.10663918 C13.0445128,3.10647423 13.0597744,3.10630928 13.0520615,3.10630928 Z" id="src/assets-Odnoklassniki-logo-Path"></path>
                    </g>
                </g>
            </g>
        </g>
    </g>
</svg>