<?xml version="1.0" encoding="UTF-8"?>
<svg width="64px" height="64px" viewBox="0 0 64 64" version="1.1" xmlns="http://www.w3.org/2000/svg" xmlns:xlink="http://www.w3.org/1999/xlink">
    <!-- Generator: Sketch 55.1 (78136) - https://sketchapp.com -->
    <title>Twitter_bird_logo_2012</title>
    <desc>Created with Sketch.</desc>
    <g id="src/assets-Twitter-logo-Desktop" stroke="none" stroke-width="1" fill="none" fill-rule="evenodd">
        <g id="src/assets-Twitter-logo-UDS-news-v3-1" transform="translate(-912.000000, -3234.000000)">
            <g id="src/assets-Twitter-logo-Group-9" transform="translate(464.000000, 3164.000000)">
                <g id="src/assets-Twitter-logo-Twitter_bird_logo_2012" transform="translate(448.000000, 70.000000)">
                    <path d="M31.8210169,0 C23.1810169,0 22.0962712,0.0379661017 18.7010169,0.195254237 C16.0616138,0.246343599 13.4500414,0.745183268 10.9776271,1.67050847 C8.85454136,2.47010452 6.93142279,3.72318563 5.34237288,5.34237288 C3.72318563,6.93142279 2.47010452,8.85454136 1.67050847,10.9776271 C0.745183268,13.4500414 0.246343599,16.0616138 0.195254237,18.7010169 C0.0379661017,22.0962712 0,23.1810169 0,31.8210169 C0,40.4610169 0.0379661017,41.5457627 0.195254237,44.9410169 C0.246343599,47.5804201 0.745183268,50.1919925 1.67050847,52.6644068 C2.47010452,54.7874925 3.72318563,56.7106111 5.34237288,58.299661 C6.93142279,59.9188483 8.85454136,61.1719294 10.9776271,61.9715254 C13.4500414,62.8968506 16.0616138,63.3956903 18.7010169,63.4467797 C22.0962712,63.6040678 23.1810169,63.6420339 31.8210169,63.6420339 C40.4610169,63.6420339 41.5457627,63.6040678 44.9410169,63.4467797 C47.5804201,63.3956903 50.1919925,62.8968506 52.6644068,61.9715254 C56.939124,60.3184148 60.3184148,56.939124 61.9715254,52.6644068 C62.8968506,50.1919925 63.3956903,47.5804201 63.4467797,44.9410169 C63.6040678,41.5457627 63.6420339,40.4610169 63.6420339,31.8210169 C63.6420339,23.1810169 63.6040678,22.0962712 63.4467797,18.7010169 C63.3956903,16.0616138 62.8968506,13.4500414 61.9715254,10.9776271 C61.1719294,8.85454136 59.9188483,6.93142279 58.299661,5.34237288 C56.7106111,3.72318563 54.7874925,2.47010452 52.6644068,1.67050847 C50.1919925,0.745183268 47.5804201,0.246343599 44.9410169,0.195254237 C41.5457627,0.0379661017 40.4610169,0 31.8210169,0 Z" id="src/assets-Twitter-logo-Path" fill="#41ABE1" fill-rule="nonzero"></path>
                    <path d="M51.576658,19.7120609 C50.1551401,20.3393705 48.6300298,20.7652503 47.0301028,20.9551697 C48.6645606,19.9767971 49.9191796,18.4229111 50.5062032,16.5755133 C48.9753378,17.4848244 47.2833286,18.1409096 45.4819719,18.4977278 C44.0374335,16.9611072 41.9828509,16 39.7038182,16 C35.335672,16 31.79051,19.5451621 31.79051,23.9133082 C31.79051,24.5348626 31.8595716,25.1391516 31.9976948,25.7146649 C25.4195775,25.3866223 19.5896275,22.2328093 15.6876472,17.4445384 C15.0085415,18.6128305 14.6171924,19.9710419 14.6171924,21.4213355 C14.6171924,24.166534 16.0156898,26.5894451 18.139334,28.0052079 C16.844429,27.964922 15.6243408,27.6081037 14.553886,27.015325 C14.553886,27.0498558 14.553886,27.0786315 14.553886,27.1131623 C14.553886,30.946081 17.2818191,34.1459351 20.9017979,34.8710818 C20.2399576,35.049491 19.5378313,35.1473282 18.8184397,35.1473282 C18.3062328,35.1473282 17.8112914,35.095532 17.3278602,35.0034499 C18.3350085,38.1457526 21.2586162,40.4362957 24.7174512,40.4996021 C22.0067835,42.6232463 18.5997446,43.8893756 14.8876837,43.8893756 C14.2488639,43.8893756 13.6215544,43.8490897 13,43.7800281 C16.499121,46.02453 20.6600823,47.3367004 25.1318208,47.3367004 C39.6865528,47.3367004 47.645902,35.2796963 47.645902,24.8226192 C47.645902,24.4773112 47.6401469,24.1377584 47.6228815,23.7982055 C49.1710123,22.6817097 50.5119584,21.2889674 51.5709029,19.7005507 L51.576658,19.7120609 Z" id="src/assets-Twitter-logo-Path" fill="#FFFFFF"></path>
                </g>
            </g>
        </g>
    </g>
</svg>