<?xml version="1.0" encoding="UTF-8"?>
<svg width="64px" height="64px" viewBox="0 0 64 64" version="1.1" xmlns="http://www.w3.org/2000/svg" xmlns:xlink="http://www.w3.org/1999/xlink">
    <!-- Generator: Sketch 55.1 (78136) - https://sketchapp.com -->
    <title>VK.com-logo</title>
    <desc>Created with Sketch.</desc>
    <g id="src/assets-VK-logo-Desktop" stroke="none" stroke-width="1" fill="none" fill-rule="evenodd">
        <g id="src/assets-VK-logo-UDS-news-v3-1" transform="translate(-464.000000, -3234.000000)" fill-rule="nonzero">
            <g id="src/assets-VK-logo-Group-9" transform="translate(464.000000, 3164.000000)">
                <g id="src/assets-VK-logo-VK.com-logo" transform="translate(0.000000, 70.000000)">
                    <path d="M22.1866667,0 C40.1066667,0 23.8933333,0 41.8133333,0 C59.7333333,0 64,4.26666667 64,22.1866667 C64,40.1066667 64,23.8933333 64,41.8133333 C64,59.7333333 59.7333333,64 41.8133333,64 C23.8933333,64 40.1066667,64 22.1866667,64 C4.26666667,64 0,59.7333333 0,41.8133333 C0,23.8933333 0,32.193443 0,22.1866667 C0,4.26666667 4.26666667,0 22.1866667,0 Z" id="src/assets-VK-logo-Path" fill="#5181B8"></path>
                    <path d="M52.411331,22.0487404 C52.7078523,21.059924 52.4113313,20.3333333 51.0000813,20.3333333 L46.3334147,20.3333333 C45.146835,20.3333333 44.599805,20.9610012 44.3031187,21.6531315 C44.3031187,21.6531315 41.9299593,27.4376458 38.568066,31.1950658 C37.480409,32.2827227 36.9859597,32.6287879 36.3926697,32.6287879 C36.096066,32.6287879 35.6666667,32.2827227 35.6666667,31.2939886 L35.6666667,22.0487404 C35.6666667,20.8621607 35.3223133,20.3333333 34.3334147,20.3333333 L27.0000814,20.3333333 C26.2585719,20.3333333 25.8126223,20.8840521 25.8126223,21.4059891 C25.8126223,22.5308449 27.4934868,22.7902498 27.666748,25.9544623 L27.666748,32.8266334 C27.666748,34.3333333 27.3946463,34.606503 26.8013564,34.606503 C25.2193325,34.606503 21.3710549,28.796147 19.0886707,22.1475809 C18.6413784,20.8553299 18.1927512,20.3333333 17.0000814,20.3333333 L12.3334147,20.3333333 C11.0000814,20.3333333 10.7333984,20.9610012 10.7333984,21.6531315 C10.7333984,22.8891726 12.3155047,29.019752 18.0999366,37.127882 C21.9561972,42.6650893 27.389415,45.6666667 32.3334147,45.6666667 C35.2997817,45.6666667 35.666748,45 35.666748,43.851669 L35.666748,39.6666667 C35.666748,38.3333333 35.947764,38.067237 36.887119,38.067237 C37.5792497,38.067237 38.7658293,38.413302 41.534515,41.0830653 C44.6986453,44.2471953 45.220294,45.6666667 47.0000813,45.6666667 L51.666748,45.6666667 C53.0000813,45.6666667 53.666748,45 53.2821583,43.6843707 C52.861302,42.373137 51.3506007,40.4707117 49.3460413,38.215539 C48.258302,36.9301187 46.6268167,35.545858 46.1323673,34.853563 C45.440237,33.9637517 45.6380003,33.568143 46.1323673,32.7771721 C46.1323673,32.7771721 51.818041,24.7678826 52.411331,22.0487404 Z" id="src/assets-VK-logo-Path" fill="#FFFFFF"></path>
                </g>
            </g>
        </g>
    </g>
</svg>